77187506
77073144
77046721
76766916
76642319
76195994
75905236
74570575
63686904
55003505
53885428
53884841
53729951
53729867
53517090
52416300
52421396
50761759
52507129
51417314
47311839
47321105
46997915
44197235
47904945
48917283
47339943
47001237
47046375
47026723
47814427
53405081
53380119
53353587
53318111
53317960
53317502
53312595
53311946
53311677
53310346
53310194
53310090
53309991
53309883
53309827
53309716
53309619
53309498
53309347
53308895
53308404
53308292
53307272
53305742
53305633
53305471
53305202
53185716
53129303
53010875
52933493
52926157
52912904
52905025
52858463
52823379
52822559
52818620
52816904
52816698
52693632
52674713
52674254
52613684
52461054
52414555
52317354
52317256
52317183
52317136
52317038
52316509
52316418
52316367
52316261
52315855
52315749
52279355
52267628
52267508
52267484
52267442
52267395
52266707
52263860
52263843
52263824
52263800
52263768
52263749
52263698
52254001
52253994
52253988
52253987
52253983
52253977
52253973
52253970
52253963
52253951
52253945
52253914
52253613
52253568
52229212
52229088
52228685
52228835
52228645
52228554
52228510
52228390
52228231
52210291
52210177
52210160
52210142
52210094
52210092
52210082
52209639
52209557
52209480
52209470
52209356
52209316
52209247
52209198
52209124
52209109
51889462
51673892
51644359
51601250
51589629
51589503
51589425
51589317
51589071
51533611
51533570
51533475
51532956
51463987
51457742
51155240
51155144
51067157
51051536
51050519
51019620
51008662
50908553
50908307
50908159
50803376
50787752
50786562
50782853
50762098
50589906
50465038
50409719
50060435
50016093
48947813
48933035
48932155
48931033
48918391
48913635
48895889
48894927
48894525
48894491
48880705
48879823
48879729
48879673
48879577
48879019
48878937
48878739
48877149
48876741
48867521
48865139
48864357
48844731
48844719
48844705
48844701
48844697
48662291
48606471
48193565
48162179
48161805
48161673
48159665
48155373
47983115
47981783
47981723
47981287
47981255
47972457
47952153
47945779
47945727
47906489
47904955
47858071
47836033
47835407
47833463
47831631
47831267
47831083
47830981
47830871
47830755
47814625
47814513
47785743
47781711
47780069
47779771
47775213
47757499
47731027
47699453
47699415
47663763
47659707
47659033
47658263
47617665
47617525
47616365
47608721
47608159
47445921
47438663
47438411
47425855
47425063
47424931
47414879
47400711
47399799
47399729
47399503
47399361
47373293
47343285
47321147
47311737
47311427
47311377
47311295
47311009
47207145
47206819
47205715
47174985
47174381
47171991
47155431
47154803
47153883
47129893
47129831
47129411
47067359
47067227
47059193
47041145
47036775
47027863
47026417
47018861
46990207
46990127
46990045
46982097
46972153
46970151
46932257
46922345
46906423
45220549
44279711
44193907
44182821
43668195
41700855
41675515
41659367
40897839
40870683
40858957
40829325
40825029
39483023
39339629
38776501
38727081
38581485
38536655
38535107
38510859
38493741
38459715
38453041
38439993
38402793
38379687
38374663
38370141
38335375
38331861
38310801
38065929
38060043
38048845
19642345
19435241
16111795
16105117
14490503
14074501
9566881
9566557
8744349
8740359
8739703
